/var/lib/jenkins/workspace/projet_java/src/main/java/fr/alecharp/simpleapp/GravatarHttpController.java
/var/lib/jenkins/workspace/projet_java/src/main/java/fr/alecharp/simpleapp/HashService.java
/var/lib/jenkins/workspace/projet_java/src/main/java/fr/alecharp/simpleapp/Server.java
